Project1
…
test_4

function () 
{
    URL <- test_3()
    return(census_tibble(URL))
}

test_4()

Warning: The `x` argument of `as_tibble.matrix()` must have unique column names if
`.name_repair` is omitted as of tibble 2.0.0.
ℹ Using compatibility `.name_repair`.

# A tibble: 33 × 6
   HISPEED PWGTP AGEP  SEX   GRPIP region
   <chr>   <chr> <chr> <chr> <chr> <chr> 
 1 0       239   0     2     32    1     
 2 1       118   0     2     31    1     
 3 1       233   0     2     32    1     
 4 1       234   0     2     32    1     
 5 1       215   0     2     31    1     
 6 1       112   0     2     31    1     
 7 1       65    0     2     32    1     
 8 1       43    0     2     32    1     
 9 1       109   0     2     30    1     
10 1       45    0     2     32    1     
# ℹ 23 more rows
…
